{
	"entity": {
		"happy-bomb": {
			"components": [
				{
					"type": "zvalue",
					"data": {
						"z": 0.4
					}
				},
				{
					"type": "physicpoint",
					"data": {
						"type": "physicPoint",
						"mass": 1,
						"rules": [
							{
								"name": "gravity",
								"type": "gravity",
								"data": {
									"value": [0, 800]
								}
							}
						]
					}
				},
				{
					"type": "collision",
					"data": {
						"$entry-type": "database",
						"table": "collisionbody",
						"name": "happy-bomb"
					}
				},
				{
					"type": "visual",
					"data": {
						"models": [
							{
								"$entry-type": "database",
								"table": "model",
								"name": "happy-bomb"
							}
						]
					}
				}
			],
			"bindings": [
				{"type": "view"},
				{"type": "physic"},
				{"type": "collision"}
			]
		},
		"big-bomb": {
			"components": [
				{
					"type": "zvalue",
					"data": {
						"z": 0.4
					}
				},
				{
					"type": "physicpoint",
					"data": {
						"type": "physicPoint",
						"mass": 1,
						"rules": [
							{
								"name": "gravity",
								"type": "gravity",
								"data": {
									"value": [0, 800]
								}
							}
						]
					}
				},
				{
					"type": "collision",
					"data": {
						"$entry-type": "database",
						"table": "collisionbody",
						"name": "big-bomb"
					}
				},
				{
					"type": "visual",
					"data": {
						"models": [
							{
								"$entry-type": "database",
								"table": "model",
								"name": "big-bomb"
							}
						]
					}
				}
			],
			"bindings": [
				{"type": "view"},
				{"type": "physic"},
				{"type": "collision"}
			]
		},
		"course-button": {
			"components": [
				{
					"type": "zvalue",
					"data": {
						"z": 0.4
					}
				},
				{
					"type": "physicpoint",
					"data": {
						"type": "physicPoint",
						"mass": 1
					}
				},
				{
					"type": "collision",
					"data": {
						"$entry-type": "database",
						"table": "collisionbody",
						"name": "course-button"
					}
				},
				{
					"type": "visual",
					"data": {
						"models": [
							{
								"$entry-type": "database",
								"table": "model",
								"name": "course-button"
							}
						]
					}
				}
			],
			"bindings": [
				{"type": "view"},
				{"type": "physic"},
				{"type": "collision"}
			]
		}
	}
}
