{
	"collisionbody": {
		"happy-block": {
			"profiles": [{
				"type": "square",
				"data": {
					"width": 32,
					"height": 32,
					"groups": ["blocks"],
					"colliding": ["map", "blocks"],
					"reactors": [
						{"group": "map", "type": "static2D"}
					]
				}
			}]
		}
	}
}
