{
	"model": {
		"happy-block-green": {
			"type": "simple-sprite",
			"data": {
				"name": "block",
				"painter": "characters",
				"steps": ["default"],
				"size": [32, 32],
				"texture": "course-happy-block-green"
			}
		},
		"happy-block-pink": {
			"type": "simple-sprite",
			"data": {
				"name": "block",
				"painter": "characters",
				"steps": ["default"],
				"size": [32, 32],
				"texture": "course-happy-block-pink"
			}
		}
	}
}
