{
	"texture": {
		"course-happy-block-green": {
			"path": "res/course/texture/sprite/happy-block-green.png",
			"target": "GL_TEXTURE_2D"
		},
		"course-happy-block-pink": {
			"path": "res/course/texture/sprite/happy-block-pink.png",
			"target": "GL_TEXTURE_2D"
		}
	}
}
